^C:\USERS\JOSHW\SCHOOL\ALL_C\C,C++\S3\PROJECTS\EXPRESSIONEVALUATOR-V1-PROJECT-2\2. UT_TOKENS\DEBUG\BOOLEAN.OBJ|C:\USERS\JOSHW\SCHOOL\ALL_C\C,C++\S3\PROJECTS\EXPRESSIONEVALUATOR-V1-PROJECT-2\2. UT_TOKENS\DEBUG\FUNCTION.OBJ|C:\USERS\JOSHW\SCHOOL\ALL_C\C,C++\S3\PROJECTS\EXPRESSIONEVALUATOR-V1-PROJECT-2\2. UT_TOKENS\DEBUG\INTEGER.OBJ|C:\USERS\JOSHW\SCHOOL\ALL_C\C,C++\S3\PROJECTS\EXPRESSIONEVALUATOR-V1-PROJECT-2\2. UT_TOKENS\DEBUG\OPERAND.OBJ|C:\USERS\JOSHW\SCHOOL\ALL_C\C,C++\S3\PROJECTS\EXPRESSIONEVALUATOR-V1-PROJECT-2\2. UT_TOKENS\DEBUG\OPERATION.OBJ|C:\USERS\JOSHW\SCHOOL\ALL_C\C,C++\S3\PROJECTS\EXPRESSIONEVALUATOR-V1-PROJECT-2\2. UT_TOKENS\DEBUG\OPERATOR.OBJ|C:\USERS\JOSHW\SCHOOL\ALL_C\C,C++\S3\PROJECTS\EXPRESSIONEVALUATOR-V1-PROJECT-2\2. UT_TOKENS\DEBUG\REAL.OBJ|C:\USERS\JOSHW\SCHOOL\ALL_C\C,C++\S3\PROJECTS\EXPRESSIONEVALUATOR-V1-PROJECT-2\2. UT_TOKENS\DEBUG\TOKEN.OBJ|C:\USERS\JOSHW\SCHOOL\ALL_C\C,C++\S3\PROJECTS\EXPRESSIONEVALUATOR-V1-PROJECT-2\2. UT_TOKENS\DEBUG\UT_TOKENS_MAIN.OBJ|C:\USERS\JOSHW\SCHOOL\ALL_C\C,C++\S3\PROJECTS\EXPRESSIONEVALUATOR-V1-PROJECT-2\2. UT_TOKENS\DEBUG\VARIABLE.OBJ
C:\WINDOWS\GLOBALIZATION\SORTING\SORTDEFAULT.NLS
C:\PROGRAM FILES (X86)\WINDOWS KITS\8.1\LIB\WINV6.3\UM\X86\KERNEL32.LIB
C:\PROGRAM FILES (X86)\WINDOWS KITS\8.1\LIB\WINV6.3\UM\X86\USER32.LIB
C:\PROGRAM FILES (X86)\WINDOWS KITS\8.1\LIB\WINV6.3\UM\X86\GDI32.LIB
C:\PROGRAM FILES (X86)\WINDOWS KITS\8.1\LIB\WINV6.3\UM\X86\WINSPOOL.LIB
C:\PROGRAM FILES (X86)\WINDOWS KITS\8.1\LIB\WINV6.3\UM\X86\COMDLG32.LIB
C:\PROGRAM FILES (X86)\WINDOWS KITS\8.1\LIB\WINV6.3\UM\X86\ADVAPI32.LIB
C:\PROGRAM FILES (X86)\WINDOWS KITS\8.1\LIB\WINV6.3\UM\X86\SHELL32.LIB
C:\PROGRAM FILES (X86)\WINDOWS KITS\8.1\LIB\WINV6.3\UM\X86\OLE32.LIB
C:\PROGRAM FILES (X86)\WINDOWS KITS\8.1\LIB\WINV6.3\UM\X86\OLEAUT32.LIB
C:\PROGRAM FILES (X86)\WINDOWS KITS\8.1\LIB\WINV6.3\UM\X86\UUID.LIB
C:\PROGRAM FILES (X86)\WINDOWS KITS\8.1\LIB\WINV6.3\UM\X86\ODBC32.LIB
C:\PROGRAM FILES (X86)\WINDOWS KITS\8.1\LIB\WINV6.3\UM\X86\ODBCCP32.LIB
C:\USERS\JOSHW\SCHOOL\ALL_C\C,C++\S3\PROJECTS\EXPRESSIONEVALUATOR-V1-PROJECT-2\2. UT_TOKENS\DEBUG\BOOLEAN.OBJ
C:\USERS\JOSHW\SCHOOL\ALL_C\C,C++\S3\PROJECTS\EXPRESSIONEVALUATOR-V1-PROJECT-2\2. UT_TOKENS\DEBUG\FUNCTION.OBJ
C:\USERS\JOSHW\SCHOOL\ALL_C\C,C++\S3\PROJECTS\EXPRESSIONEVALUATOR-V1-PROJECT-2\2. UT_TOKENS\DEBUG\INTEGER.OBJ
C:\USERS\JOSHW\SCHOOL\ALL_C\C,C++\S3\PROJECTS\EXPRESSIONEVALUATOR-V1-PROJECT-2\2. UT_TOKENS\DEBUG\OPERAND.OBJ
C:\USERS\JOSHW\SCHOOL\ALL_C\C,C++\S3\PROJECTS\EXPRESSIONEVALUATOR-V1-PROJECT-2\2. UT_TOKENS\DEBUG\OPERATION.OBJ
C:\USERS\JOSHW\SCHOOL\ALL_C\C,C++\S3\PROJECTS\EXPRESSIONEVALUATOR-V1-PROJECT-2\2. UT_TOKENS\DEBUG\OPERATOR.OBJ
C:\USERS\JOSHW\SCHOOL\ALL_C\C,C++\S3\PROJECTS\EXPRESSIONEVALUATOR-V1-PROJECT-2\2. UT_TOKENS\DEBUG\REAL.OBJ
C:\USERS\JOSHW\SCHOOL\ALL_C\C,C++\S3\PROJECTS\EXPRESSIONEVALUATOR-V1-PROJECT-2\2. UT_TOKENS\DEBUG\TOKEN.OBJ
C:\USERS\JOSHW\SCHOOL\ALL_C\C,C++\S3\PROJECTS\EXPRESSIONEVALUATOR-V1-PROJECT-2\2. UT_TOKENS\DEBUG\VARIABLE.OBJ
C:\USERS\JOSHW\SCHOOL\ALL_C\C,C++\S3\PROJECTS\EXPRESSIONEVALUATOR-V1-PROJECT-2\2. UT_TOKENS\DEBUG\UT_TOKENS_MAIN.OBJ
C:\WINDOWS\SYSTEM32\TZRES.DLL
C:\PROGRAM FILES (X86)\MICROSOFT VISUAL STUDIO 14.0\VC\LIB\MSVCPRTD.LIB
C:\PROGRAM FILES (X86)\MICROSOFT VISUAL STUDIO 14.0\VC\LIB\MSVCRTD.LIB
C:\PROGRAM FILES (X86)\MICROSOFT VISUAL STUDIO 14.0\VC\LIB\OLDNAMES.LIB
C:\BOOST\BOOST_1_61_0\STAGE\LIB\LIBBOOST_UNIT_TEST_FRAMEWORK-VC140-MT-GD-1_61.LIB
C:\PROGRAM FILES (X86)\MICROSOFT VISUAL STUDIO 14.0\VC\LIB\VCRUNTIMED.LIB
C:\PROGRAM FILES (X86)\WINDOWS KITS\10\LIB\10.0.10240.0\UCRT\X86\UCRTD.LIB
