^C:\USERS\JOSHW\SCHOOL\ALL_C\C,C++\S3\PROJECTS\EXPRESSIONEVALUATOR-V1-PROJECT-2\1. UI PROTOTYPE\DEBUG\UI_PROTOTYPE_MAIN.OBJ
C:\USERS\JOSHW\SCHOOL\ALL_C\C,C++\S3\PROJECTS\EXPRESSIONEVALUATOR-V1-PROJECT-2\DEBUG\1. UI PROTOTYPE.ILK
C:\USERS\JOSHW\SCHOOL\ALL_C\C,C++\S3\PROJECTS\EXPRESSIONEVALUATOR-V1-PROJECT-2\DEBUG\1. UI PROTOTYPE.EXE
C:\USERS\JOSHW\SCHOOL\ALL_C\C,C++\S3\PROJECTS\EXPRESSIONEVALUATOR-V1-PROJECT-2\DEBUG\1. UI PROTOTYPE.PDB
