﻿  ee_main.cpp
c:\users\joshw\school\all_c\c,c++\s3\projects\expressionevaluator-v1-project-2\common\inc\function.hpp(27): error C2143: syntax error: missing ';' before '}'
c:\users\joshw\school\all_c\c,c++\s3\projects\expressionevaluator-v1-project-2\common\inc\function.hpp(27): error C4430: missing type specifier - int assumed. Note: C++ does not support default-int
c:\users\joshw\school\all_c\c,c++\s3\projects\expressionevaluator-v1-project-2\common\inc\function.hpp(27): warning C4183: 'DECL_OPERATION_PERFORM': missing return type; assumed to be a member function returning 'int'
c:\users\joshw\school\all_c\c,c++\s3\projects\expressionevaluator-v1-project-2\common\inc\expression_evaluator.hpp(31): error C2653: 'Result': is not a class or namespace name
c:\users\joshw\school\all_c\c,c++\s3\projects\expressionevaluator-v1-project-2\common\inc\expression_evaluator.hpp(31): error C3861: 'clear': identifier not found
c:\users\joshw\school\all_c\c,c++\s3\projects\expressionevaluator-v1-project-2\common\inc\expression_evaluator.hpp(35): error C2653: 'Result': is not a class or namespace name
c:\users\joshw\school\all_c\c,c++\s3\projects\expressionevaluator-v1-project-2\common\inc\expression_evaluator.hpp(35): error C3861: 'clear': identifier not found
  variable.cpp
  tokenizer.cpp
c:\users\joshw\school\all_c\c,c++\s3\projects\expressionevaluator-v1-project-2\common\inc\function.hpp(27): error C2143: syntax error: missing ';' before '}'
c:\users\joshw\school\all_c\c,c++\s3\projects\expressionevaluator-v1-project-2\common\inc\function.hpp(27): error C4430: missing type specifier - int assumed. Note: C++ does not support default-int
c:\users\joshw\school\all_c\c,c++\s3\projects\expressionevaluator-v1-project-2\common\inc\function.hpp(27): warning C4183: 'DECL_OPERATION_PERFORM': missing return type; assumed to be a member function returning 'int'
  token.cpp
  RPNEvaluator.cpp
  real.cpp
c:\users\joshw\school\all_c\c,c++\s3\projects\expressionevaluator-v1-project-2\common\inc\function.hpp(27): error C2143: syntax error: missing ';' before '}'
c:\users\joshw\school\all_c\c,c++\s3\projects\expressionevaluator-v1-project-2\common\inc\function.hpp(27): error C4430: missing type specifier - int assumed. Note: C++ does not support default-int
c:\users\joshw\school\all_c\c,c++\s3\projects\expressionevaluator-v1-project-2\common\inc\function.hpp(27): warning C4183: 'DECL_OPERATION_PERFORM': missing return type; assumed to be a member function returning 'int'
  parser.cpp
c:\users\joshw\school\all_c\c,c++\s3\projects\expressionevaluator-v1-project-2\common\inc\function.hpp(27): error C2143: syntax error: missing ';' before '}'
c:\users\joshw\school\all_c\c,c++\s3\projects\expressionevaluator-v1-project-2\common\inc\function.hpp(27): error C4430: missing type specifier - int assumed. Note: C++ does not support default-int
c:\users\joshw\school\all_c\c,c++\s3\projects\expressionevaluator-v1-project-2\common\inc\function.hpp(27): warning C4183: 'DECL_OPERATION_PERFORM': missing return type; assumed to be a member function returning 'int'
  operator.cpp
  operation.cpp
  operand.cpp
  integer.cpp
c:\users\joshw\school\all_c\c,c++\s3\projects\expressionevaluator-v1-project-2\common\inc\function.hpp(27): error C2143: syntax error: missing ';' before '}'
c:\users\joshw\school\all_c\c,c++\s3\projects\expressionevaluator-v1-project-2\common\inc\function.hpp(27): error C4430: missing type specifier - int assumed. Note: C++ does not support default-int
c:\users\joshw\school\all_c\c,c++\s3\projects\expressionevaluator-v1-project-2\common\inc\function.hpp(27): warning C4183: 'DECL_OPERATION_PERFORM': missing return type; assumed to be a member function returning 'int'
  function.cpp
c:\users\joshw\school\all_c\c,c++\s3\projects\expressionevaluator-v1-project-2\common\inc\function.hpp(27): error C2143: syntax error: missing ';' before '}'
c:\users\joshw\school\all_c\c,c++\s3\projects\expressionevaluator-v1-project-2\common\inc\function.hpp(27): error C4430: missing type specifier - int assumed. Note: C++ does not support default-int
c:\users\joshw\school\all_c\c,c++\s3\projects\expressionevaluator-v1-project-2\common\inc\function.hpp(27): warning C4183: 'DECL_OPERATION_PERFORM': missing return type; assumed to be a member function returning 'int'
  expression_evaluator.cpp
c:\users\joshw\school\all_c\c,c++\s3\projects\expressionevaluator-v1-project-2\common\inc\function.hpp(27): error C2143: syntax error: missing ';' before '}'
c:\users\joshw\school\all_c\c,c++\s3\projects\expressionevaluator-v1-project-2\common\inc\function.hpp(27): error C4430: missing type specifier - int assumed. Note: C++ does not support default-int
c:\users\joshw\school\all_c\c,c++\s3\projects\expressionevaluator-v1-project-2\common\inc\function.hpp(27): warning C4183: 'DECL_OPERATION_PERFORM': missing return type; assumed to be a member function returning 'int'
c:\users\joshw\school\all_c\c,c++\s3\projects\expressionevaluator-v1-project-2\common\inc\expression_evaluator.hpp(31): error C2653: 'Result': is not a class or namespace name
c:\users\joshw\school\all_c\c,c++\s3\projects\expressionevaluator-v1-project-2\common\inc\expression_evaluator.hpp(31): error C3861: 'clear': identifier not found
c:\users\joshw\school\all_c\c,c++\s3\projects\expressionevaluator-v1-project-2\common\inc\expression_evaluator.hpp(35): error C2653: 'Result': is not a class or namespace name
c:\users\joshw\school\all_c\c,c++\s3\projects\expressionevaluator-v1-project-2\common\inc\expression_evaluator.hpp(35): error C3861: 'clear': identifier not found
  boolean.cpp
  Generating Code...
